absl-py==0.1.13
alabaster==0.7.10
asn1crypto==0.24.0
astor==0.6.2
astroid==1.6.1
astropy==2.0.3
attrs==17.4.0
babel==2.5.3
beautifulsoup4==4.6.0
bitarray==0.8.1
bkcharts==0.2
blaze==0.10.1
bleach==2.1.2
bokeh==0.12.13
boto==2.48.0
bottleneck==1.2.1
certifi==2018.1.18
cffi==1.11.4
chardet==3.0.4
click==6.7
cloudpickle==0.5.2
clyent==1.2.1
colorama==0.3.9
configparser==3.5.0
contextlib2==0.5.5
cryptography==2.1.4
cycler==0.10.0
cytoolz==0.9.0
dask==0.16.1
datashape==0.5.2
decorator==4.2.1
distributed==1.20.2
dlib==19.10.0
docutils==0.14
entrypoints==0.2.3
enum34==1.1.6
et_xmlfile==1.0.1
fastcache==1.0.2
filelock==2.0.13
flask==0.12.2
flask-cors==3.0.3
funcsigs==1.0.2
functools32
futures==3.2.0
gast==0.2.0
gevent==1.2.2
gmpy2==2.0.8
greenlet==0.4.12
grin==1.2.1
grpcio==1.10.0
heapdict==1.0.0
html5lib==1.0.1
idna==2.6
imageio==2.2.0
imagesize==0.7.1
imutils==0.4.6
ipaddress==1.0.19
ipykernel==4.8.0
ipython==5.4.1
ipython_genutils==0.2.0
ipywidgets==7.1.1
isort==4.2.15
itsdangerous==0.24
jdcal==1.3
jedi==0.11.1
jinja2==2.1
jsonschema==2.6.0
jupyter==1.0.0
jupyter_client==5.2.2
jupyter_console==5.2.0
jupyter_core==4.4.0
jupyterlab==0.31.5
jupyterlab_launcher==0.10.2
multipledispatch==0.4.9
nbconvert==5.3.1
nbformat==4.4.0
networkx==2.1
nltk==3.2.5
nose==1.3.7
notebook==5.4.0
numba==0.36.2
numexpr==2.6.4
numpy==1.14.0
numpydoc==0.7.0
odo
olefile==0.45.1
openpyxl==2.4.10
packaging==16.8
pandas
pandoc
pandocfilters
parso==0.1.1
partd==0.3.8
path.py==10.5
pathlib2==2.3.0
patsy==0.5.0
pbr==4.0.1
pep8==1.7.1
pexpect==4.3.1
pickleshare==0.7.4
pillow==5.0.0
pkginfo==1.4.1
pluggy==0.6.0
ply
prompt_toolkit==1.0.15
protobuf==3.5.2.post1
psutil==5.4.3
ptyprocess==0.5.2
py==1.5.2
pycairo==1.15.4
pycodestyle==2.3.1
pycosat==0.6.3
pycparser==2.18
pycrypto==2.6.1
pyflakes==1.6.0
pygments==2.2.0
pylint==1.8.2
pyodbc==4.0.22
pyopenssl==17.5.0
pysocks==1.6.7
pytest==3.3.2
python-dateutil==2.6.1
pytz==2017.3
pywavelets==0.5.2
pyyaml==3.12
pyzmq==16.0.3
qtawesome==0.4.4
qtconsole==4.3.1
qtpy==1.3.1
queuelib==1.5.0
readline
requests==2.18.4
rope==0.10.7
scandir==1.6
scikit-image==0.13.1
scikit-learn==0.19.1
scipy==1.0.0
seaborn==0.8.1
send2trash==1.4.2
setuptools==38.4.0
simplegeneric==0.8.1
singledispatch==3.4.0.3
six==1.11.0
snowballstemmer==1.2.1
sortedcollections==0.5.3
sortedcontainers==1.5.9
sphinx==1.6.6
sphinxcontrib-websupport==1.0.1
spyder==3.2.6
sqlalchemy==1.2.1
statsmodels==0.8.0
subprocess32==3.2.7
sympy==1.1.1
tblib==1.3.2
tensorboard==1.7.0
termcolor==1.1.0
terminado==0.8.1
testpath==0.3.1
Theano==1.0.1
toolz==0.9.0
tornado==4.5.3
tqdm==4.23.4
traitlets==4.3.2
typing==3.6.2
unicodecsv==0.14.1
urllib3==1.22
wcwidth==0.1.7
webencodings==0.5.1
werkzeug==0.14.1
wheel==0.30.0
widgetsnbextension==3.1.0
wrapt==1.10.11
xlrd==1.1.0
xlsxwriter==1.0.2
xlwt==1.3.0
zict==0.1.3
Keras==2.0.3
lazy-object-proxy==1.3.1
llvmlite==0.21.0
locket==0.2.0
lxml==4.1.1
Markdown==2.6.11
markupsafe==1
matplotlib==2.1.2
mccabe==0.6.1
mistune==0.8.3
mock==2.0.0
moviepy==0.2.3.5
mpmath==1.0.0
msgpack-python==0.5.1
